{
	"info": {
		"_postman_id": "4ecf3c02-5db5-4a91-8865-869192892264",
		"name": "ApiUserDemoCollection",
		"schema": "https://schema.getpostman.com/json/collection/v2.1.0/collection.json"
	},
	"item": [
		{
			"name": "Ping",
			"request": {
				"method": "GET",
				"header": [],
				"url": {
					"raw": "{{urlBase}}/ping",
					"host": [
						"{{urlBase}}"
					],
					"path": [
						"ping"
					]
				}
			},
			"response": []
		},
		{
			"name": "Create User",
			"request": {
				"method": "POST",
				"header": [],
				"body": {
					"mode": "raw",
					"raw": "{\n    \"name\": \"Juan Rodriguez\",\n    \"email\": \"juan22512@rodriguez.org\",\n    \"password\": \"Hu345678901_\",\n    \"phones\": [\n        {\n            \"number\": \"123\",\n            \"cityCode\": \"1\",\n            \"countryCode\": \"57\"\n        }\n    ]\n}",
					"options": {
						"raw": {
							"language": "json"
						}
					}
				},
				"url": {
					"raw": "{{urlBase}}/user",
					"host": [
						"{{urlBase}}"
					],
					"path": [
						"user"
					]
				}
			},
			"response": []
		},
		{
			"name": "Login User",
			"event": [
				{
					"listen": "test",
					"script": {
						"exec": [
							"if (responseCode.code == 200) {\r",
							"    var response = JSON.parse(responseBody);\r",
							"    postman.setEnvironmentVariable(\"userUUID\", response.id);\r",
							"}"
						],
						"type": "text/javascript"
					}
				}
			],
			"request": {
				"method": "POST",
				"header": [],
				"body": {
					"mode": "raw",
					"raw": "{\n    \"email\":\"juan22512@rodriguez.org\",\n    \"password\":\"Hu345678901_\"\n}",
					"options": {
						"raw": {
							"language": "json"
						}
					}
				},
				"url": {
					"raw": "{{urlBase}}/login",
					"host": [
						"{{urlBase}}"
					],
					"path": [
						"login"
					]
				}
			},
			"response": []
		},
		{
			"name": "Get User Data",
			"request": {
				"method": "GET",
				"header": [],
				"url": {
					"raw": "{{urlBase}}/user/{{userUUID}}",
					"host": [
						"{{urlBase}}"
					],
					"path": [
						"user",
						"{{userUUID}}"
					]
				}
			},
			"response": []
		},
		{
			"name": "Swagger api-docs",
			"request": {
				"method": "GET",
				"header": [],
				"url": {
					"raw": "{{urlBase}}/swagger/api-docs",
					"host": [
						"{{urlBase}}"
					],
					"path": [
						"swagger",
						"api-docs"
					]
				}
			},
			"response": []
		}
	]
}